<svg width="24" height="24" viewBox="0 0 24 24" fill="none" xmlns="http://www.w3.org/2000/svg">
<rect x="2" y="4" width="20" height="16" rx="1" stroke="#0061A7" stroke-width="2" stroke-linejoin="round"/>
<path d="M4 12H8L10.5 8L13.5 16L16 12H20" stroke="#AD8F6B" stroke-width="2" stroke-linejoin="round"/>
</svg>
